#Command:  
^D:\TESTIR8SEM\BUILD\CMAKEFILES\3.16.2\COMPILERIDC\DEBUG\CMAKECCOMPILERID.OBJ
C:\WINDOWS\MICROSOFT.NET\FRAMEWORK\V2.0.50727\MSCORWKS.DLL
C:\WINDOWS\MICROSOFT.NET\FRAMEWORK\V4.0.30319\CLR.DLL
C:\PROGRAM FILES (X86)\MICROSOFT VISUAL STUDIO 14.0\VC\BIN\VCTIP.EXE
C:\WINDOWS\MICROSOFT.NET\FRAMEWORK\V4.0.30319\CLR.DLL
C:\WINDOWS\MICROSOFT.NET\FRAMEWORK\V4.0.30319\CONFIG\MACHINE.CONFIG
C:\WINDOWS\GLOBALIZATION\SORTING\SORTDEFAULT.NLS
C:\WINDOWS\MICROSOFT.NET\ASSEMBLY\GAC_32\MSCORLIB\V4.0_4.0.0.0__B77A5C561934E089\MSCORLIB.DLL
C:\WINDOWS\ASSEMBLY\NATIVEIMAGES_V4.0.30319_32\MSCORLIB\6433F51E967E4A06B141770CC57F10CA\MSCORLIB.NI.DLL
C:\WINDOWS\ASSEMBLY\NATIVEIMAGES_V4.0.30319_32\MSCORLIB\6433F51E967E4A06B141770CC57F10CA\MSCORLIB.NI.DLL.AUX
C:\WINDOWS\ASSEMBLY\NATIVEIMAGES_V4.0.30319_32\MSCORLIB\92D30F3DD1D092E15DD783B14354D8EA\MSCORLIB.NI.DLL
C:\WINDOWS\ASSEMBLY\NATIVEIMAGES_V4.0.30319_32\MSCORLIB\92D30F3DD1D092E15DD783B14354D8EA\MSCORLIB.NI.DLL.AUX
C:\WINDOWS\MICROSOFT.NET\ASSEMBLY\GAC_32\MSCORLIB\V4.0_4.0.0.0__B77A5C561934E089\MSCORLIB.DLL
C:\PROGRAM FILES (X86)\MICROSOFT VISUAL STUDIO 14.0\VC\BIN\VCTIP.EXE
C:\WINDOWS\SYSTEM32\TZRES.DLL
C:\USERS\MAKSIM\APPDATA\LOCAL\MICROSOFT\VSCOMMON\14.0\SQM\VCTOOLSTELEMETRY.DAT.TMP
C:\WINDOWS\ASSEMBLY\PUBPOL45.DAT
C:\WINDOWS\MICROSOFT.NET\FRAMEWORK\V4.0.30319\CONFIG\MACHINE.CONFIG
C:\WINDOWS\MICROSOFT.NET\ASSEMBLY\GAC_MSIL\SYSTEM\V4.0_4.0.0.0__B77A5C561934E089\SYSTEM.DLL
C:\WINDOWS\ASSEMBLY\NATIVEIMAGES_V4.0.30319_32\SYSTEM\596FF9A6150B8ADC8C591A6EC54DD1DD\SYSTEM.NI.DLL
C:\WINDOWS\ASSEMBLY\NATIVEIMAGES_V4.0.30319_32\SYSTEM\596FF9A6150B8ADC8C591A6EC54DD1DD\SYSTEM.NI.DLL.AUX
C:\WINDOWS\ASSEMBLY\NATIVEIMAGES_V4.0.30319_32\SYSTEM\FE540975C21BB6F0B57E398EE683B7C4\SYSTEM.NI.DLL
C:\WINDOWS\ASSEMBLY\NATIVEIMAGES_V4.0.30319_32\SYSTEM\FE540975C21BB6F0B57E398EE683B7C4\SYSTEM.NI.DLL.AUX
C:\WINDOWS\MICROSOFT.NET\ASSEMBLY\GAC_MSIL\SYSTEM\V4.0_4.0.0.0__B77A5C561934E089\SYSTEM.DLL
C:\WINDOWS\MICROSOFT.NET\ASSEMBLY\GAC_MSIL\SYSTEM.CONFIGURATION\V4.0_4.0.0.0__B03F5F7F11D50A3A\SYSTEM.CONFIGURATION.DLL
C:\WINDOWS\MICROSOFT.NET\ASSEMBLY\GAC_MSIL\SYSTEM.XML\V4.0_4.0.0.0__B77A5C561934E089\SYSTEM.XML.DLL
C:\WINDOWS\MICROSOFT.NET\ASSEMBLY\GAC_MSIL\SYSTEM.CORE\V4.0_4.0.0.0__B77A5C561934E089\SYSTEM.CORE.DLL
C:\WINDOWS\ASSEMBLY\NATIVEIMAGES_V4.0.30319_32\SYSTEM.CORE\8CEC84ECB3D50CCBBA63DC64D18EEFAF\SYSTEM.CORE.NI.DLL
C:\WINDOWS\ASSEMBLY\NATIVEIMAGES_V4.0.30319_32\SYSTEM.CORE\8CEC84ECB3D50CCBBA63DC64D18EEFAF\SYSTEM.CORE.NI.DLL.AUX
C:\WINDOWS\MICROSOFT.NET\ASSEMBLY\GAC_MSIL\SYSTEM.CORE\V4.0_4.0.0.0__B77A5C561934E089\SYSTEM.CORE.DLL
C:\WINDOWS\MICROSOFT.NET\ASSEMBLY\GAC_MSIL\SYSTEM.NUMERICS\V4.0_4.0.0.0__B77A5C561934E089\SYSTEM.NUMERICS.DLL
C:\WINDOWS\MICROSOFT.NET\ASSEMBLY\GAC_MSIL\SYSTEM.SECURITY\V4.0_4.0.0.0__B03F5F7F11D50A3A\SYSTEM.SECURITY.DLL
C:\PROGRAM FILES (X86)\MICROSOFT VISUAL STUDIO 14.0\VC\BIN\VCTIP.EXE
C:\WINDOWS\SYSTEM32\WINNLSRES.DLL
C:\PROGRAM FILES (X86)\MICROSOFT VISUAL STUDIO 14.0\VC\BIN\VCTIP.EXE
