#Command:  
^D:\TESTIR8SEM\BUILD\CMAKEFILES\3.16.2\COMPILERIDC\DEBUG\CMAKECCOMPILERID.OBJ
C:\PROGRAMDATA\VSTELEMETRY\DEFAULT\DEFAULT.MANIFEST.JSON
C:\WINDOWS\MICROSOFT.NET\ASSEMBLY\GAC_MSIL\SYSTEM.XML.LINQ\V4.0_4.0.0.0__B77A5C561934E089\SYSTEM.XML.LINQ.DLL
C:\WINDOWS\ASSEMBLY\NATIVEIMAGES_V4.0.30319_32\SYSTEM.XML.LINQ\B452101E80957698B19B9D73A1988F34\SYSTEM.XML.LINQ.NI.DLL
C:\WINDOWS\ASSEMBLY\NATIVEIMAGES_V4.0.30319_32\SYSTEM.XML.LINQ\B452101E80957698B19B9D73A1988F34\SYSTEM.XML.LINQ.NI.DLL.AUX
C:\WINDOWS\MICROSOFT.NET\ASSEMBLY\GAC_MSIL\SYSTEM.XML.LINQ\V4.0_4.0.0.0__B77A5C561934E089\SYSTEM.XML.LINQ.DLL
C:\WINDOWS\MICROSOFT.NET\ASSEMBLY\GAC_MSIL\SYSTEM.RUNTIME.SERIALIZATION\V4.0_4.0.0.0__B77A5C561934E089\SYSTEM.RUNTIME.SERIALIZATION.DLL
