#Command:  
^D:\TESTIR8SEM\BUILD\CMAKEFILES\3.16.2\COMPILERIDC\DEBUG\CMAKECCOMPILERID.OBJ
C:\USERS\MAKSIM\APPDATA\LOCAL\MICROSOFT\APPLICATIONINSIGHTS\VSTELAIF-312CBD79-9DBB-4C48-A7DA-3CC2A931CB70\3996A3320CCD444FB53D415CEF9BA5A3.TMP
