^D:\TESTIR8SEM\CMAKELISTS.TXT
C:\PROGRAM FILES\CMAKE\SHARE\CMAKE-3.16\MODULES\CMAKECINFORMATION.CMAKE
C:\PROGRAM FILES\CMAKE\SHARE\CMAKE-3.16\MODULES\CMAKECXXINFORMATION.CMAKE
C:\PROGRAM FILES\CMAKE\SHARE\CMAKE-3.16\MODULES\CMAKECOMMONLANGUAGEINCLUDE.CMAKE
C:\PROGRAM FILES\CMAKE\SHARE\CMAKE-3.16\MODULES\CMAKEGENERICSYSTEM.CMAKE
C:\PROGRAM FILES\CMAKE\SHARE\CMAKE-3.16\MODULES\CMAKEINITIALIZECONFIGS.CMAKE
C:\PROGRAM FILES\CMAKE\SHARE\CMAKE-3.16\MODULES\CMAKELANGUAGEINFORMATION.CMAKE
C:\PROGRAM FILES\CMAKE\SHARE\CMAKE-3.16\MODULES\CMAKERCINFORMATION.CMAKE
C:\PROGRAM FILES\CMAKE\SHARE\CMAKE-3.16\MODULES\CMAKESYSTEMSPECIFICINFORMATION.CMAKE
C:\PROGRAM FILES\CMAKE\SHARE\CMAKE-3.16\MODULES\CMAKESYSTEMSPECIFICINITIALIZE.CMAKE
C:\PROGRAM FILES\CMAKE\SHARE\CMAKE-3.16\MODULES\CTEST.CMAKE
C:\PROGRAM FILES\CMAKE\SHARE\CMAKE-3.16\MODULES\CTESTTARGETS.CMAKE
C:\PROGRAM FILES\CMAKE\SHARE\CMAKE-3.16\MODULES\CTESTUSELAUNCHERS.CMAKE
C:\PROGRAM FILES\CMAKE\SHARE\CMAKE-3.16\MODULES\COMPILER\CMAKECOMMONCOMPILERMACROS.CMAKE
C:\PROGRAM FILES\CMAKE\SHARE\CMAKE-3.16\MODULES\COMPILER\MSVC-C.CMAKE
C:\PROGRAM FILES\CMAKE\SHARE\CMAKE-3.16\MODULES\COMPILER\MSVC-CXX.CMAKE
C:\PROGRAM FILES\CMAKE\SHARE\CMAKE-3.16\MODULES\DARTCONFIGURATION.TCL.IN
C:\PROGRAM FILES\CMAKE\SHARE\CMAKE-3.16\MODULES\PLATFORM\WINDOWS-MSVC-C.CMAKE
C:\PROGRAM FILES\CMAKE\SHARE\CMAKE-3.16\MODULES\PLATFORM\WINDOWS-MSVC-CXX.CMAKE
C:\PROGRAM FILES\CMAKE\SHARE\CMAKE-3.16\MODULES\PLATFORM\WINDOWS-MSVC.CMAKE
C:\PROGRAM FILES\CMAKE\SHARE\CMAKE-3.16\MODULES\PLATFORM\WINDOWS.CMAKE
C:\PROGRAM FILES\CMAKE\SHARE\CMAKE-3.16\MODULES\PLATFORM\WINDOWSPATHS.CMAKE
D:\TESTIR8SEM\CTESTCONFIG.CMAKE
D:\TESTIR8SEM\BUILD\CMAKEFILES\3.16.2\CMAKECCOMPILER.CMAKE
D:\TESTIR8SEM\BUILD\CMAKEFILES\3.16.2\CMAKECXXCOMPILER.CMAKE
D:\TESTIR8SEM\BUILD\CMAKEFILES\3.16.2\CMAKERCCOMPILER.CMAKE
D:\TESTIR8SEM\BUILD\CMAKEFILES\3.16.2\CMAKESYSTEM.CMAKE
